Homework 5 Poker

Total Score: 0

Compiles       20/20 pts

Comments    10/10 pts

Checks for Integer     10/10 pts

Checks for duplicates   10/10 pts

Program works             50/50 pts
No submission